{
    "KPlugin": {
        "Description": "Provides secrets to the NetworkManager daemon",
        "Description[ar]": "توفّر الأسرار لعفريت «مديرالشّبكة»",
        "Description[az]": "NetworkManager xidməti üçün şifrə və açar təqdim edir",
        "Description[bg]": "Предоставя поверителни данни към демона за управление на мрежата",
        "Description[ca@valencia]": "Proporciona secrets al dimoni NetworkManager",
        "Description[ca]": "Proporciona secrets al dimoni NetworkManager",
        "Description[cs]": "Poskytuje přihlašovací informace pro službu NetworkManageru",
        "Description[de]": "Stellt dem NetworkManager-Dienst vertrauliche Daten zur Verfügung",
        "Description[en_GB]": "Provides secrets to the NetworkManager daemon",
        "Description[es]": "Proporciona contraseñas al demonio de NetworkManager",
        "Description[eu]": "«NetworkManager» daimonari sekretuak hornitzen dizkio",
        "Description[fi]": "Välittää salaisuuksia NetworkManager-palvelulle",
        "Description[fr]": "Fournit des éléments secrets pour le démon « NetworkManager »",
        "Description[hu]": "Titkokat biztosít a NetworkManager démonhoz",
        "Description[ia]": "Forni secretos per le demon de NetworkManager",
        "Description[is]": "Kemur leyniteiknum áleiðis til netstjóravaktarinnar",
        "Description[it]": "Fornisce i segreti al demone NetworkManager",
        "Description[ka]": "საიდუმლო სტრიქონების მიწოდება NetowkManager-ის დემონამდე",
        "Description[ko]": "NetworkManager 데몬에 비밀 정보 제공",
        "Description[lt]": "Teikia paslaptis NetworkManager tarnybai",
        "Description[nl]": "Levert secrets aan de NetworkManager-daemon",
        "Description[nn]": "Forsyner NetworkManager-tenesta med løyndomar",
        "Description[pl]": "Dostarcza danych poufnych do usługi Zarządzania Siecią",
        "Description[pt]": "Fornece as senhas ao serviço NetworkManager",
        "Description[pt_BR]": "Fornece as senhas do serviço NetworkManager",
        "Description[ro]": "Furnizează secrete către demonul NetworkManager",
        "Description[ru]": "Предоставляет пароли и ключи демону NetworkManager",
        "Description[sk]": "Poskytuje tajnosti službe správcu siete NetworkManager",
        "Description[sl]": "Ponuja skrivnosti za odzadnji program NetworkManager",
        "Description[sv]": "Tillhandahåller hemligheter till nätverkshanteringsdemonen",
        "Description[ta]": "NetworkManager பின்னணி சேவைக்கு கடவுச்சொற்களை வழங்கும்",
        "Description[tr]": "AğYönetici yardımcısına şifreleri sağlar",
        "Description[uk]": "Надає реєстраційні дані фоновій службі NetworkManager",
        "Description[x-test]": "xxProvides secrets to the NetworkManager daemonxx",
        "Description[zh_CN]": "为 NetworkManager 守护程序提供密码",
        "Description[zh_TW]": "提供秘密予 NetworkManager 伺服程式",
        "Name": "Plasma Network Management module",
        "Name[ar]": "وحدة بلازما لإدارة الشّبكة",
        "Name[az]": "Plasma şəbəkə idarəetmə modulu",
        "Name[bg]": "Plasma Модул за управление на мрежата",
        "Name[ca@valencia]": "Mòdul de Plasma de Gestió de la xarxa",
        "Name[ca]": "Mòdul del Plasma de Gestió de la xarxa",
        "Name[cs]": "Modul Plasma pro správu sítě",
        "Name[da]": "Plasma netværkshåndteringsmodul",
        "Name[de]": "Plasma-Netzwerkverwaltungsmodul",
        "Name[en_GB]": "Plasma Network Management module",
        "Name[es]": "Modulo de gestión de redes de Plasma",
        "Name[et]": "Plasma võrguhalduse moodul",
        "Name[eu]": "Plasmako Sareak Kudeatzeko modulua",
        "Name[fi]": "Plasman verkonhallintamoduuli",
        "Name[fr]": "Module de gestion du réseau pour Plasma",
        "Name[gl]": "Módulo de xestión da rede de Plasma",
        "Name[hsb]": "Plasma-modul za rjadowanje syće",
        "Name[hu]": "Plasma hálózatkezelés modul",
        "Name[ia]": "Modulo de gestion de rete de Plasma",
        "Name[id]": "Modul Pengelolaan Jaringan Plasma",
        "Name[is]": "Netstýringakerfi Plasma",
        "Name[it]": "Modulo della gestione di rete di Plasma",
        "Name[ka]": "Plasma -ის ქსელის მართვის მოდული",
        "Name[ko]": "Plasma 네트워크 관리 모듈",
        "Name[lt]": "Plasma tinklo valdymo modulis",
        "Name[ml]": "പ്ലാസ്മ ശൃംഖല നടത്തിപ്പ്‌ മൊഡ്യൂൾ",
        "Name[nl]": "Plasma module voor netwerkbeheer",
        "Name[nn]": "Plasma-modul for nettverksstyring",
        "Name[pa]": "ਪਲਾਜ਼ਮਾ ਨੈੱਟਵਰਕ ਇੰਤਜ਼ਾਮ ਮੋਡੀਊਲ",
        "Name[pl]": "Moduł Plazmy do zarządzania siecią",
        "Name[pt]": "Módulo de Gestão de Rede do Plasma",
        "Name[pt_BR]": "Módulo de Gerenciamento de Rede do Plasma",
        "Name[ro]": "Modul Plasma pentru gestiunea rețelei",
        "Name[ru]": "Модуль для управления сетью",
        "Name[sk]": "Modul správy siete pre Plasmu",
        "Name[sl]": "Plasmin modul za upravljanje omrežij",
        "Name[sv]": "Plasma nätverkshanteringsmodul",
        "Name[ta]": "பிளாஸ்மா பிணைய மேலாண்மை கூறு",
        "Name[tr]": "Plasma Ağ Yönetim Modülü",
        "Name[uk]": "Модуль керування мережею Плазми",
        "Name[x-test]": "xxPlasma Network Management modulexx",
        "Name[zh_CN]": "Plasma 网络管理模块",
        "Name[zh_TW]": "Plasma 網路管理模組"
    },
    "OnlyShowIn": "KDE;",
    "X-KDE-Kded-autoload": true,
    "X-KDE-Kded-load-on-demand": true,
    "X-KDE-Kded-phase": 1
}
